Ten: Truong Thanh Dat
MSSV: 21867432
Lop: 21DTHD2

Ten: Lau Hoa Huy
MSSV: 2180607551
Lop: 21DTHD2

Ten: Hoang Van Huy
MSSV: 2180605180
Lop: 21DTHD2

Ten: Nguyen Phuoc Duy
MSSV: 2180608272
Lop: 21DTHD2


Ten: Tran Thanh Hien
MSSV: 2180607481
Lop: 21DTHD2

